<?xml version="1.0" encoding="UTF-8" standalone="no"?>
<!DOCTYPE svg PUBLIC "-//W3C//DTD SVG 1.1//EN" "http://www.w3.org/Graphics/SVG/1.1/DTD/svg11.dtd">
<svg xmlns="http://www.w3.org/2000/svg"
  xmlns:xlink="http://www.w3.org/1999/xlink" version="1.1" width="354pt" height="255pt" viewBox="0 0 355 356">

  <path d="M242.416 426.392C266.297 426.425 276.41 443.052 287.147 460.923L375.068 611.692C379.212 619.216 383.3 628.311 383.175 636.827C382.851 659.005 354.06 667.122 336.832 667.973C324.223 668.594 311.764 665.637 300.549 660.596L293.547 669.611C297.628 687.003 313.73 708.127 335.857 707.969C374.287 707.692 394.471 672.545 409.92 643.923L438.539 590.901L355.466 448.443C347.793 435.7 360.389 426.435 373.775 426.354L376.828 414.549H245.481L242.416 426.392ZM516.249 445.165C522.546 432.654 535.192 426.452 548.226 426.372L551.285 414.549H456.849L453.788 426.378C469.767 426.457 491.308 432.661 492.743 445.165H516.249Z"
    fill="white"
    transform="translate(-63,-69) scale(0.35 0.35)" />

  <g enable-background="new">
    <g id="Layer-1" data-name="Layer 1">

      <rect x="170" y="66" width="1" height="130" fill="white"/>

      <clipPath id="c1">
        <circle cx="30.435" cy="45.639" r="23.825" style="fill: none; stroke-width: 10.2px; stroke: rgb(0, 0, 0);"/>
      </clipPath>
      <clipPath id="c2">
        <path d="M 63.098 24.182 C 63.098 24.182 89.71 56.485 90.39 66.272 C 91.01 75.199 73.914 79.671 61.856 81.011 C 47.309 82.628 31.25 81.761 24.422 79.086 C 20.559 77.573 17.122 74.014 14.721 70.749 C 12.32 67.484 11.005 63.609 11.005 63.609 C 13.495 65.728 12.323 64.799 14.16 66.349 C 15.997 67.899 18.981 69.876 23.967 71.092 C 31.302 72.881 44.498 72.772 56.051 71.621 C 67.604 70.471 79.667 68.012 78.066 64.876 C 78.066 64.876 54.168 29.378 50.817 26.777 C 45.767 22.858 31.504 18.847 31.504 18.847 C 41.706 17.983 56.381 16.907 62.775 23.822" />
      </clipPath>
      <clipPath id="c3">
        <path d="M 67.561 42.534 L 76.105 48.133 L 62.531 68.15 C 60.278 69.255 49.771 69.536 49.771 69.536 L 67.561 42.534 Z"/>
      </clipPath>
      <clipPath id="c4">
        <path d="M 79.837 42.39 C 79.837 42.578 94.987 18.435 94.987 18.292 C 82.381 24.428 73.794 34.112 73.802 34.108 L 79.837 42.39 Z"/>
      </clipPath>

      <path transform="translate(205,45) scale(1.7 1.7)" id="p1" clip-path="url(#c1)" stroke="white" stroke-width="11" fill="none" stroke-linecap="round" d="M 49.189 45.611 A 18.725 18.725 0 0 1 30.464 64.336 A 18.725 18.725 0 0 1 11.739 45.611 A 18.725 18.725 0 0 1 30.464 26.886 A 18.725 18.725 0 0 1 49.189 45.611 Z" />
      <path transform="translate(205,45) scale(1.7 1.7)" id="p2" clip-path="url(#c2)" stroke="white" stroke-width="14" fill="none" stroke-linecap="round" d="M 35.978 19.377 C 39.659 19.777 51.597 23.195 54.713 24.908 C 63.01 29.473 65.323 35.236 68.071 39.458 C 71.237 44.322 83.76 59.101 84.495 66.823 C 85.347 75.813 19.948 84.026 13.416 66.7" />
      <path transform="translate(205,45) scale(1.7 1.7)" id="p3" clip-path="url(#c3)" stroke="white" stroke-width="12" stroke-linecap="round" d="M 73.978 42.724 L 53.118 72.294" />
      <path transform="translate(205,45) scale(1.7 1.7)" id="p4" clip-path="url(#c4)" stroke="white" stroke-width="11" stroke-linecap="round" d="M 75.807 39.57 L 95.054 17.742" />


    </g>
  </g>
</svg>
